{
  "type": "object",
  "required": [
    "cond"
  ],
  "if": {
    "properties": {
      "cond": {
        "const": "true"
      }
    }
  },
  "then": {
    "required": [
      "then"
    ],
    "properties": {
      "then": {
        "type": "object",
        "required": [
          "cond"
        ],
        "if": {
          "properties": {
            "cond": {
              "const": "true"
            }
          }
        },
        "then": {
          "required": [
            "then"
          ]
        },
        "else": {
          "required": [
            "else"
          ]
        }
      }
    }
  },
  "else": {
    "required": [
      "else"
    ],
    "properties": {
      "else": {
        "type": "object",
        "required": [
          "cond"
        ],
        "if": {
          "properties": {
            "cond": {
              "const": "true"
            }
          }
        },
        "then": {
          "required": [
            "then"
          ]
        },
        "else": {
          "required": [
            "else"
          ]
        }
      }
    }
  }
}