{
  "type": "object",
  "required": [
    "o1"
  ],
  "properties": {
    "o1": {
      "type": "object",
      "required": [
        "cond",
        "p-then"
      ],
      "properties": {
        "cond": {
          "type": "string"
        }
      }
    }
  }
}